mc    binl    binw    bnll    bnlw    fibl    fibw    pail    paiw
500   147785  792849  66307   209396  68895   265014  56372   199149
1000  142704  705284  66092   179018  62725   226420  52620   172139
2500  127756  567146  59286   142700  58595   163291  48766   78081
5000  124824  411061  50051   79581   43708   114277  33868   61967
10000 114812  283836  38715   63419   41918   80709   33428   47569
25000 101814  196923  35590   45416   35347   49419   27276   34570